3_1_time_series_graphs_part1
…
Time Plots

Already seen. Example for a10 creation.

PBS %>%
  filter(ATC2 == "A10") %>%
  select(Month, Concession, Type, Cost) %>%
  summarise(TotalC = sum(Cost)) %>%
  
  # Comment on this assignment operator
  mutate(Cost = TotalC / 1e6) -> a10

a10

## # A tsibble: 204 x 3 [1M]
##       Month  TotalC  Cost
##       <mth>   <dbl> <dbl>
##  1 1991 Jul 3526591  3.53
##  2 1991 Aug 3180891  3.18
##  3 1991 Sep 3252221  3.25
##  4 1991 Oct 3611003  3.61
##  5 1991 Nov 3565869  3.57
##  6 1991 Dec 4306371  4.31
##  7 1992 Jan 5088335  5.09
##  8 1992 Feb 2814520  2.81
##  9 1992 Mar 2985811  2.99
## 10 1992 Apr 3204780  3.20
## # ... with 194 more rows
…
For example: summarizing by month with a max, min and an average value.

EXERCISE seasonal plots

The aus_arrivals (loaded with the fpp3 library) data set comprises quarterly international arrivals (in thousands) to Australia from Japan, New Zealand, UK and the US. Use autoplot(), gg_season() and gg_subseries() to compare the differences between the arrivals from these four countries.

Create a:

Timeplot of the arrivals using autoplot (one curve per country of origin)

Seasonal plot using gg_season (due to the structure of the data it will produce one graph per country of origin)

aus_arrivals

## # A tsibble: 508 x 3 [1Q]
## # Key:       Origin [4]
##    Quarter Origin Arrivals
##      <qtr> <chr>     <int>
##  1 1981 Q1 Japan     14763
##  2 1981 Q2 Japan      9321
##  3 1981 Q3 Japan     10166
##  4 1981 Q4 Japan     19509
##  5 1982 Q1 Japan     17117
##  6 1982 Q2 Japan     10617
##  7 1982 Q3 Japan     11737
##  8 1982 Q4 Japan     20961
##  9 1983 Q1 Japan     20671
## 10 1983 Q2 Japan     12235
## # ... with 498 more rows
…
Unusual observations:

2000 Q3: Spikes from the US (Sydney Olympics arrivals)

2001 Q3-Q4 are unusual for US (9/11 effect)

1991 Q3 is unusual for the US (Gulf war effect?)

Seasonal subseries plots: gg_subseries

Example with monthly data

a10

## # A tsibble: 204 x 3 [1M]
##       Month  TotalC  Cost
##       <mth>   <dbl> <dbl>
##  1 1991 Jul 3526591  3.53
##  2 1991 Aug 3180891  3.18
##  3 1991 Sep 3252221  3.25
##  4 1991 Oct 3611003  3.61
##  5 1991 Nov 3565869  3.57
##  6 1991 Dec 4306371  4.31
##  7 1992 Jan 5088335  5.09
##  8 1992 Feb 2814520  2.81
##  9 1992 Mar 2985811  2.99
## 10 1992 Apr 3204780  3.20
## # ... with 194 more rows
…
48 graphs. The period = day divided by the smallest time unit (30 mins)

See the output in separate file subseasonal_demand_hourly_PeriodDay.svg

Another option is to create an aggregation by month:

vic_elec_m <- vic_elec %>%
  index_by(month = yearmonth(Time)) %>%
  summarise(
    avg_demand = mean(Demand)
  )

vic_elec_m

## # A tsibble: 36 x 2 [1M]
##       month avg_demand
##       <mth>      <dbl>
##  1 2012 Jan      4866.
##  2 2012 Feb      4939.
##  3 2012 Mar      4534.
##  4 2012 Apr      4439.
##  5 2012 May      4956.
##  6 2012 Jun      5131.
##  7 2012 Jul      5086.
##  8 2012 Aug      5035.
##  9 2012 Sep      4561.
## 10 2012 Oct      4496.
## # ... with 26 more rows
…
ggsave("subseasonal_demand_daily_PeriodYear.svg", width = 40, height = 5)

See output in separate file subseasonal_demand_daily_PeriodYear.svg

Answer: 365 graphs (Period = year subdivided in the smallest unit = days). This is utterly useless, of course. But it helps you understand

Scatter plots

Two variables

vic_elec

## # A tsibble: 52,608 x 5 [30m] <Australia/Melbourne>
##    Time                Demand Temperature Date       Holiday
##    <dttm>               <dbl>       <dbl> <date>     <lgl>  
##  1 2012-01-01 00:00:00  4383.        21.4 2012-01-01 TRUE   
##  2 2012-01-01 00:30:00  4263.        21.0 2012-01-01 TRUE   
##  3 2012-01-01 01:00:00  4049.        20.7 2012-01-01 TRUE   
##  4 2012-01-01 01:30:00  3878.        20.6 2012-01-01 TRUE   
##  5 2012-01-01 02:00:00  4036.        20.4 2012-01-01 TRUE   
##  6 2012-01-01 02:30:00  3866.        20.2 2012-01-01 TRUE   
##  7 2012-01-01 03:00:00  3694.        20.1 2012-01-01 TRUE   
##  8 2012-01-01 03:30:00  3562.        19.6 2012-01-01 TRUE   
##  9 2012-01-01 04:00:00  3433.        19.1 2012-01-01 TRUE   
## 10 2012-01-01 04:30:00  3359.        19.0 2012-01-01 TRUE   
## # ... with 52,598 more rows
…
Figure 2: Examples of variables having the same correlation coefficient. From [1]

It is therefore very important to depict a scatterplot of the variables and not rely only on the correlation coefficient.

Several variables - scatterplot matrix

visitors <- tourism %>%
  group_by(State) %>%
  summarise(Trips = sum(Trips))

visitors

## # A tsibble: 640 x 3 [1Q]
## # Key:       State [8]
##    State Quarter Trips
##    <chr>   <qtr> <dbl>
##  1 ACT   1998 Q1  551.
##  2 ACT   1998 Q2  416.
##  3 ACT   1998 Q3  436.
##  4 ACT   1998 Q4  450.
##  5 ACT   1999 Q1  379.
##  6 ACT   1999 Q2  558.
##  7 ACT   1999 Q3  449.
##  8 ACT   1999 Q4  595.
##  9 ACT   2000 Q1  600.
## 10 ACT   2000 Q2  557.
## # ... with 630 more rows
…
visitors %>%
  pivot_wider(values_from=Trips, names_from=State)

## # A tsibble: 80 x 9 [1Q]
##    Quarter   ACT `New South Wales` `Northern Territ~ Queensland `South Australi~
##      <qtr> <dbl>             <dbl>             <dbl>      <dbl>            <dbl>
##  1 1998 Q1  551.             8040.              181.      4041.            1735.
##  2 1998 Q2  416.             7166.              314.      3968.            1395.
##  3 1998 Q3  436.             6748.              528.      4594.            1213.
##  4 1998 Q4  450.             7282.              248.      4203.            1453.
##  5 1999 Q1  379.             7585.              185.      4332.            1541.
##  6 1999 Q2  558.             7054.              366.      4824.            1636.
##  7 1999 Q3  449.             6724.              501.      5018.            1283.
##  8 1999 Q4  595.             7136.              248.      4350.            1387.
##  9 2000 Q1  600.             7296.              206.      4413.            1833.
## 10 2000 Q2  557.             6445.              360.      4344.            1415.
## # ... with 70 more rows, and 3 more variables: Tasmania <dbl>, Victoria <dbl>,
## #   Western Australia <dbl>
…
