4_Lagplots_Autocorrelation
…
Additional material provided by the book authors

Lagged variables and time-plots

Given a time series we can compute its lags by shifting it in time a given number of steps. The lagged variable simply contains past information of the variable, which has been shifted as many steps as indicated by the number of the lag.

As with most things in life, this is better understood with an example:

recent_beer <- aus_production %>%
  filter(year(Quarter) >= 2000) %>%
  select(Quarter, Beer)

recent_beer

# A tsibble: 42 x 2 [1Q]
   Quarter  Beer
     <qtr> <dbl>
 1 2000 Q1   421
 2 2000 Q2   402
 3 2000 Q3   414
 4 2000 Q4   500
 5 2001 Q1   451
 6 2001 Q2   380
 7 2001 Q3   416
 8 2001 Q4   492
 9 2002 Q1   428
10 2002 Q2   408
# ... with 32 more rows

With this code, we generate the lagged values of the time series corresponding to the variable Beer:

for (i in seq(1, 4)) {
  lag_name = paste0("Beer_lag", as.character(i))
  recent_beer[[lag_name]] = lag(recent_beer[["Beer"]], i)
}

recent_beer

# A tsibble: 42 x 6 [1Q]
   Quarter  Beer Beer_lag1 Beer_lag2 Beer_lag3 Beer_lag4
     <qtr> <dbl>     <dbl>     <dbl>     <dbl>     <dbl>
 1 2000 Q1   421        NA        NA        NA        NA
 2 2000 Q2   402       421        NA        NA        NA
 3 2000 Q3   414       402       421        NA        NA
 4 2000 Q4   500       414       402       421        NA
 5 2001 Q1   451       500       414       402       421
 6 2001 Q2   380       451       500       414       402
 7 2001 Q3   416       380       451       500       414
 8 2001 Q4   492       416       380       451       500
 9 2002 Q1   428       492       416       380       451
10 2002 Q2   408       428       492       416       380
# ... with 32 more rows
…
# 3 - D - series exhibits a clear trend and D is the only correlogram that matches this. We also observe spikes at lag 12. Since this is monthly data, this corresponds to yearly seasonality. It matches the data structure.

# 4 - C - the series exhibits cycles of approximately 10 years. These cycles seem pretty regular. The only correlogram showing this behavior is correlogram C. Remember these are cycles and not seasonality. We are dealing with yearly data.

# 2 - A - correlogram exhibits yearly seasonality (spikes at lag 12 for monthly data), matching the time series. No trend in the data.

# 1 - Signal from sensor. More erratic behavior and a bit of downwards trend. No seasonality and a bit of trend. The only correlogram matching this is B.

Exercise 2 - time series graphs

Use the following graph functions: autoplot(), gg_season(), gg_subseries(), gg_lag(), ACF() and explore features of the time series Total Private from the dataset us_employment (loaded with fpp3):

us_employment

# A tsibble: 143,412 x 4 [1M]
# Key:       Series_ID [148]
      Month Series_ID     Title         Employed
      <mth> <chr>         <chr>            <dbl>
 1 1939 Jan CEU0500000001 Total Private    25338
 2 1939 Feb CEU0500000001 Total Private    25447
 3 1939 Mar CEU0500000001 Total Private    25833
 4 1939 Apr CEU0500000001 Total Private    25801
 5 1939 May CEU0500000001 Total Private    26113
 6 1939 Jun CEU0500000001 Total Private    26485
 7 1939 Jul CEU0500000001 Total Private    26481
 8 1939 Aug CEU0500000001 Total Private    26848
 9 1939 Sep CEU0500000001 Total Private    27468
10 1939 Oct CEU0500000001 Total Private    27830
# ... with 143,402 more rows

total_private <- us_employment %>%
  filter(Title == "Total Private")

total_private

# A tsibble: 969 x 4 [1M]
# Key:       Series_ID [1]
      Month Series_ID     Title         Employed
      <mth> <chr>         <chr>            <dbl>
 1 1939 Jan CEU0500000001 Total Private    25338
 2 1939 Feb CEU0500000001 Total Private    25447
 3 1939 Mar CEU0500000001 Total Private    25833
 4 1939 Apr CEU0500000001 Total Private    25801
 5 1939 May CEU0500000001 Total Private    26113
 6 1939 Jun CEU0500000001 Total Private    26485
 7 1939 Jul CEU0500000001 Total Private    26481
 8 1939 Aug CEU0500000001 Total Private    26848
 9 1939 Sep CEU0500000001 Total Private    27468
10 1939 Oct CEU0500000001 Total Private    27830
# ... with 959 more rows
…
Exercise 3 - time series graphs

The PBS dataset included in fpp3 contains Monthly Medicare Australia prescription data. Run ?PBS on the console for further info.

We would like to focus on the prescriptions with ATC (Anatomical Therapeutic Chemical Index level 2) equal to H02. This group corresponds to corticosteroids for systemic use.

PBS %>%
  filter(ATC2 == "H02") %>%
  select(ATC2, Month, Cost, everything()) %>%
  arrange(Month)

# A tsibble: 816 x 9 [1M]
# Key:       Concession, Type, ATC1, ATC2 [4]
   ATC2     Month   Cost Concession   Type        ATC1  ATC1_d~1 ATC2_~2 Scripts
   <chr>    <mth>  <dbl> <chr>        <chr>       <chr> <chr>    <chr>     <dbl>
 1 H02   1991 Jul 317384 Concessional Co-payments H     Systemi~ CORTIC~   63261
 2 H02   1991 Jul  82929 Concessional Safety net  H     Systemi~ CORTIC~   12211
 3 H02   1991 Jul  20178 General      Co-payments H     Systemi~ CORTIC~    4013
 4 H02   1991 Jul   9304 General      Safety net  H     Systemi~ CORTIC~    2101
 5 H02   1991 Aug 269891 Concessional Co-payments H     Systemi~ CORTIC~   53528
 6 H02   1991 Aug 100602 Concessional Safety net  H     Systemi~ CORTIC~   14827
 7 H02   1991 Aug  16519 General      Co-payments H     Systemi~ CORTIC~    3397
 8 H02   1991 Aug  13894 General      Safety net  H     Systemi~ CORTIC~    2970
 9 H02   1991 Sep 269703 Concessional Co-payments H     Systemi~ CORTIC~   52822
10 H02   1991 Sep 128900 Concessional Safety net  H     Systemi~ CORTIC~   18896
# ... with 806 more rows, and abbreviated variable names 1: ATC1_desc,
#   2: ATC2_desc

As you can see, after filtering for ATC2 == H02 there are 4 entries per month corresponding to different combinations of the columns Concession and Type. We would like to add the Cost associated to those 4 entries for every month, to obtain a time series of the total cost per month. Use index_by() and summarise() to get the total cost per month

h02_monthly <- PBS %>%
  filter(ATC2 == "H02") %>%
  index_by(Month) %>%
  summarise(
    Cost = sum(Cost)
  )

h02_monthly

# A tsibble: 204 x 2 [1M]
      Month   Cost
      <mth>  <dbl>
 1 1991 Jul 429795
 2 1991 Aug 400906
 3 1991 Sep 432159
 4 1991 Oct 492543
 5 1991 Nov 502369
 6 1991 Dec 602652
 7 1992 Jan 660119
 8 1992 Feb 336220
 9 1992 Mar 351348
10 1992 Apr 379808
# ... with 194 more rows
…
