5_1_Time_Series_Decomposition_I_Schemes_Transformations
…
With this code we can obtain the components using STL decomposition (more on that later in the chapter):

dcmp <- us_retail_employment %>%
  model(stl = STL(Employed))
components(dcmp)

# A dable: 357 x 7 [1M]
# Key:     .model [1]
# :        Employed = trend + season_year + remainder
   .model    Month Employed  trend season_year remainder season_adjust
   <chr>     <mth>    <dbl>  <dbl>       <dbl>     <dbl>         <dbl>
 1 stl    1990 Jan   13256. 13288.      -33.0      0.836        13289.
 2 stl    1990 Feb   12966. 13269.     -258.     -44.6          13224.
 3 stl    1990 Mar   12938. 13250.     -290.     -22.1          13228.
 4 stl    1990 Apr   13012. 13231.     -220.       1.05         13232.
 5 stl    1990 May   13108. 13211.     -114.      11.3          13223.
 6 stl    1990 Jun   13183. 13192.      -24.3     15.5          13207.
 7 stl    1990 Jul   13170. 13172.      -23.2     21.6          13193.
 8 stl    1990 Aug   13160. 13151.       -9.52    17.8          13169.
 9 stl    1990 Sep   13113. 13131.      -39.5     22.0          13153.
10 stl    1990 Oct   13185. 13110.       61.6     13.2          13124.
# ... with 347 more rows
…
a10

# A tsibble: 204 x 3 [1M]
      Month  TotalC  Cost
      <mth>   <dbl> <dbl>
 1 1991 Jul 3526591  3.53
 2 1991 Aug 3180891  3.18
 3 1991 Sep 3252221  3.25
 4 1991 Oct 3611003  3.61
 5 1991 Nov 3565869  3.57
 6 1991 Dec 4306371  4.31
 7 1992 Jan 5088335  5.09
 8 1992 Feb 2814520  2.81
 9 1992 Mar 2985811  2.99
10 1992 Apr 3204780  3.20
# ... with 194 more rows

a10

# A tsibble: 204 x 3 [1M]
      Month  TotalC  Cost
      <mth>   <dbl> <dbl>
 1 1991 Jul 3526591  3.53
 2 1991 Aug 3180891  3.18
 3 1991 Sep 3252221  3.25
 4 1991 Oct 3611003  3.61
 5 1991 Nov 3565869  3.57
 6 1991 Dec 4306371  4.31
 7 1992 Jan 5088335  5.09
 8 1992 Feb 2814520  2.81
 9 1992 Mar 2985811  2.99
10 1992 Apr 3204780  3.20
# ... with 194 more rows

With this code we can obtain the components using X11 decomposition. We use this method because the series is multiplicative (more about that later in the chapter):

x11_dcmp <- a10 %>%
  model(x11 = X_13ARIMA_SEATS(Cost ~ x11())) %>%
  components()

x11_dcmp

# A dable: 204 x 7 [1M]
# Key:     .model [1]
# :        Cost = trend * seasonal * irregular
   .model    Month  Cost trend seasonal irregular season_adjust
   <chr>     <mth> <dbl> <dbl>    <dbl>     <dbl>         <dbl>
 1 x11    1991 Jul  3.53  3.44    0.998     1.03           3.54
 2 x11    1991 Aug  3.18  3.42    0.988     0.941          3.22
 3 x11    1991 Sep  3.25  3.41    0.964     0.987          3.37
 4 x11    1991 Oct  3.61  3.41    1.06      0.999          3.41
 5 x11    1991 Nov  3.57  3.42    1.03      1.01           3.46
 6 x11    1991 Dec  4.31  3.45    1.29      0.971          3.35
 7 x11    1992 Jan  5.09  3.48    1.43      1.02           3.55
 8 x11    1992 Feb  2.81  3.52    0.799     1.00           3.52
 9 x11    1992 Mar  2.99  3.56    0.852     0.983          3.50
10 x11    1992 Apr  3.20  3.60    0.860     1.03           3.73
# ... with 194 more rows
…
Multiplicative scheme under different transformations:

Let us look at the effect of applying different transformations of increasing strength to stabilize variations. The purpose is to the multiplicative scheme into an additive one.

Specifically we will apply a square root, a cubic root and a log transformation

a10 <- mutate(a10, sqrt_cost = sqrt(Cost), cbrt_cost = Cost^(1/3), log_cost = log(Cost), inv_cost = -1/Cost)
a10

# A tsibble: 204 x 7 [1M]
      Month  TotalC  Cost sqrt_cost cbrt_cost log_cost inv_cost
      <mth>   <dbl> <dbl>     <dbl>     <dbl>    <dbl>    <dbl>
 1 1991 Jul 3526591  3.53      1.88      1.52     1.26   -0.284
 2 1991 Aug 3180891  3.18      1.78      1.47     1.16   -0.314
 3 1991 Sep 3252221  3.25      1.80      1.48     1.18   -0.307
 4 1991 Oct 3611003  3.61      1.90      1.53     1.28   -0.277
 5 1991 Nov 3565869  3.57      1.89      1.53     1.27   -0.280
 6 1991 Dec 4306371  4.31      2.08      1.63     1.46   -0.232
 7 1992 Jan 5088335  5.09      2.26      1.72     1.63   -0.197
 8 1992 Feb 2814520  2.81      1.68      1.41     1.03   -0.355
 9 1992 Mar 2985811  2.99      1.73      1.44     1.09   -0.335
10 1992 Apr 3204780  3.20      1.79      1.47     1.16   -0.312
# ... with 194 more rows

Now let us explore the effect of each transformation in the data (please excuse the spaghetti code style, in a production environment dedicated functions or at least a for loop should have been written to avoid code repetition)

dcmp <- a10 %>%
  model(stl = STL(sqrt_cost))
components(dcmp)

# A dable: 204 x 7 [1M]
# Key:     .model [1]
# :        sqrt_cost = trend + season_year + remainder
   .model    Month sqrt_cost trend season_year remainder season_adjust
   <chr>     <mth>     <dbl> <dbl>       <dbl>     <dbl>         <dbl>
 1 stl    1991 Jul      1.88  1.82     -0.0218    0.0826          1.90
 2 stl    1991 Aug      1.78  1.83     -0.0215   -0.0207          1.81
 3 stl    1991 Sep      1.80  1.83     -0.0154   -0.0155          1.82
 4 stl    1991 Oct      1.90  1.84      0.0332    0.0242          1.87
 5 stl    1991 Nov      1.89  1.85      0.0617   -0.0251          1.83
 6 stl    1991 Dec      2.08  1.86      0.334    -0.120           1.74
 7 stl    1992 Jan      2.26  1.87      0.372     0.0139          1.88
 8 stl    1992 Feb      1.68  1.88     -0.249     0.0470          1.93
 9 stl    1992 Mar      1.73  1.89     -0.148    -0.0124          1.88
10 stl    1992 Apr      1.79  1.90     -0.152     0.0439          1.94
# ... with 194 more rows
…
dcmp <- a10 %>%
  model(stl = STL(cbrt_cost))
components(dcmp)

# A dable: 204 x 7 [1M]
# Key:     .model [1]
# :        cbrt_cost = trend + season_year + remainder
   .model    Month cbrt_cost trend season_year remainder season_adjust
   <chr>     <mth>     <dbl> <dbl>       <dbl>     <dbl>         <dbl>
 1 stl    1991 Jul      1.52  1.49    -0.0100     0.0419          1.53
 2 stl    1991 Aug      1.47  1.49    -0.0103    -0.0135          1.48
 3 stl    1991 Sep      1.48  1.50    -0.00720   -0.0101          1.49
 4 stl    1991 Oct      1.53  1.50     0.0176     0.0134          1.52
 5 stl    1991 Nov      1.53  1.51     0.0323    -0.0124          1.50
 6 stl    1991 Dec      1.63  1.51     0.166     -0.0513          1.46
 7 stl    1992 Jan      1.72  1.52     0.185      0.0179          1.53
 8 stl    1992 Feb      1.41  1.52    -0.126      0.0161          1.54
 9 stl    1992 Mar      1.44  1.53    -0.0746    -0.0124          1.51
10 stl    1992 Apr      1.47  1.53    -0.0761     0.0186          1.55
# ... with 194 more rows
…
dcmp <- a10 %>%
  model(stl = STL(log_cost))
components(dcmp)

# A dable: 204 x 7 [1M]
# Key:     .model [1]
# :        log_cost = trend + season_year + remainder
   .model    Month log_cost trend season_year remainder season_adjust
   <chr>     <mth>    <dbl> <dbl>       <dbl>     <dbl>         <dbl>
 1 stl    1991 Jul     1.26  1.20     -0.0136  0.0736            1.27
 2 stl    1991 Aug     1.16  1.21     -0.0162 -0.0344            1.17
 3 stl    1991 Sep     1.18  1.22     -0.0105 -0.0255            1.19
 4 stl    1991 Oct     1.28  1.22      0.0332  0.0279            1.25
 5 stl    1991 Nov     1.27  1.23      0.0600 -0.0196            1.21
 6 stl    1991 Dec     1.46  1.24      0.278  -0.0567            1.18
 7 stl    1992 Jan     1.63  1.25      0.311   0.0684            1.32
 8 stl    1992 Feb     1.03  1.26     -0.221  -0.000911          1.26
 9 stl    1992 Mar     1.09  1.27     -0.128  -0.0439            1.22
10 stl    1992 Apr     1.16  1.27     -0.130   0.0195            1.29
# ... with 194 more rows
…
dcmp <- a10 %>%
  model(stl = STL(inv_cost))
components(dcmp)

# A dable: 204 x 7 [1M]
# Key:     .model [1]
# :        inv_cost = trend + season_year + remainder
   .model    Month inv_cost  trend season_year remainder season_adjust
   <chr>     <mth>    <dbl>  <dbl>       <dbl>     <dbl>         <dbl>
 1 stl    1991 Jul   -0.284 -0.300  -0.0000614   0.0161         -0.283
 2 stl    1991 Aug   -0.314 -0.298  -0.00252    -0.0138         -0.312
 3 stl    1991 Sep   -0.307 -0.297  -0.000907   -0.00998        -0.307
 4 stl    1991 Oct   -0.277 -0.295   0.00852     0.00965        -0.285
 5 stl    1991 Nov   -0.280 -0.293   0.0144     -0.00149        -0.295
 6 stl    1991 Dec   -0.232 -0.292   0.0509      0.00844        -0.283
 7 stl    1992 Jan   -0.197 -0.290   0.0574      0.0359         -0.254
 8 stl    1992 Feb   -0.355 -0.288  -0.0464     -0.0213         -0.309
 9 stl    1992 Mar   -0.335 -0.285  -0.0253     -0.0242         -0.310
10 stl    1992 Apr   -0.312 -0.283  -0.0249     -0.00388        -0.287
# ... with 194 more rows
…
