6_4_Point_Forecast_Accuracy_CrossValidation
…
A perfect fit to the training data can always be obtained with enough parameters (over-fitting)

Over-fitting a model to data is just as bad as not identifying a pattern in the data.

Functions to subset a time series

filter()

filter() can be used to filter out a portion of a time series.

# Data from 1995 onwards
aus_production %>% filter(year(Quarter) >= 1995)

## # A tsibble: 62 x 7 [1Q]
##    Quarter  Beer Tobacco Bricks Cement Electricity   Gas
##      <qtr> <dbl>   <dbl>  <dbl>  <dbl>       <dbl> <dbl>
##  1 1995 Q1   426    4714    430   1626       41768   131
##  2 1995 Q2   408    3939    457   1703       43686   167
##  3 1995 Q3   416    6137    417   1733       46022   181
##  4 1995 Q4   520    4739    370   1545       42800   145
##  5 1996 Q1   409    4275    310   1526       43661   133
##  6 1996 Q2   398    5239    358   1593       44707   162
##  7 1996 Q3   398    6293    379   1706       46326   184
##  8 1996 Q4   507    5575    369   1699       43346   146
##  9 1997 Q1   432    4802    330   1511       43938   135
## 10 1997 Q2   398    5523    390   1785       45828   171
## # ... with 52 more rows

#Equivalent to the above
aus_production %>% filter_index("1995 Q1" ~ .)

## # A tsibble: 62 x 7 [1Q]
##    Quarter  Beer Tobacco Bricks Cement Electricity   Gas
##      <qtr> <dbl>   <dbl>  <dbl>  <dbl>       <dbl> <dbl>
##  1 1995 Q1   426    4714    430   1626       41768   131
##  2 1995 Q2   408    3939    457   1703       43686   167
##  3 1995 Q3   416    6137    417   1733       46022   181
##  4 1995 Q4   520    4739    370   1545       42800   145
##  5 1996 Q1   409    4275    310   1526       43661   133
##  6 1996 Q2   398    5239    358   1593       44707   162
##  7 1996 Q3   398    6293    379   1706       46326   184
##  8 1996 Q4   507    5575    369   1699       43346   146
##  9 1997 Q1   432    4802    330   1511       43938   135
## 10 1997 Q2   398    5523    390   1785       45828   171
## # ... with 52 more rows

slice()

slice(): allows extraction by indices:

# Extact the first 12 points (1 year) of data of each combination of State, Industry
aus_retail %>%
  group_by(State, Industry)  %>%
  slice(1:12)

## # A tsibble: 1,824 x 5 [1M]
## # Key:       State, Industry [152]
## # Groups:    State, Industry [152]
##    State                        Industry                Serie~1    Month Turno~2
##    <chr>                        <chr>                   <chr>      <mth>   <dbl>
##  1 Australian Capital Territory Cafes, restaurants and~ A33498~ 1982 Apr     4.4
##  2 Australian Capital Territory Cafes, restaurants and~ A33498~ 1982 May     3.4
##  3 Australian Capital Territory Cafes, restaurants and~ A33498~ 1982 Jun     3.6
##  4 Australian Capital Territory Cafes, restaurants and~ A33498~ 1982 Jul     4  
##  5 Australian Capital Territory Cafes, restaurants and~ A33498~ 1982 Aug     3.6
##  6 Australian Capital Territory Cafes, restaurants and~ A33498~ 1982 Sep     4.2
##  7 Australian Capital Territory Cafes, restaurants and~ A33498~ 1982 Oct     4.8
##  8 Australian Capital Territory Cafes, restaurants and~ A33498~ 1982 Nov     5.4
##  9 Australian Capital Territory Cafes, restaurants and~ A33498~ 1982 Dec     6.9
## 10 Australian Capital Territory Cafes, restaurants and~ A33498~ 1983 Jan     3.8
## # ... with 1,814 more rows, and abbreviated variable names 1: `Series ID`,
## #   2: Turnover

Slice can be used in combination with n() to refer to the maximum number of rows. In the following examples the parenthesis play a major role because the : operator takes precedence over the - operator, so in order to adequately reference the indexes we need to use the parenthesis

# Extract everything put the last 12 observations of each series 
# (each combination of State, Industry)
aus_retail %>%
  group_by(State, Industry) %>%
  slice(1:(n()-12))

## # A tsibble: 62,708 x 5 [1M]
## # Key:       State, Industry [152]
## # Groups:    State, Industry [152]
##    State                        Industry                Serie~1    Month Turno~2
##    <chr>                        <chr>                   <chr>      <mth>   <dbl>
##  1 Australian Capital Territory Cafes, restaurants and~ A33498~ 1982 Apr     4.4
##  2 Australian Capital Territory Cafes, restaurants and~ A33498~ 1982 May     3.4
##  3 Australian Capital Territory Cafes, restaurants and~ A33498~ 1982 Jun     3.6
##  4 Australian Capital Territory Cafes, restaurants and~ A33498~ 1982 Jul     4  
##  5 Australian Capital Territory Cafes, restaurants and~ A33498~ 1982 Aug     3.6
##  6 Australian Capital Territory Cafes, restaurants and~ A33498~ 1982 Sep     4.2
##  7 Australian Capital Territory Cafes, restaurants and~ A33498~ 1982 Oct     4.8
##  8 Australian Capital Territory Cafes, restaurants and~ A33498~ 1982 Nov     5.4
##  9 Australian Capital Territory Cafes, restaurants and~ A33498~ 1982 Dec     6.9
## 10 Australian Capital Territory Cafes, restaurants and~ A33498~ 1983 Jan     3.8
## # ... with 62,698 more rows, and abbreviated variable names 1: `Series ID`,
## #   2: Turnover

# Extract just last 12 observations of each series 
# (each combination of State, Industry)
# Recall thath the - operator can be used here to indecate "everything but".
aus_retail %>%
  group_by(State, Industry) %>%
  slice(-(1:(n()-12)))

## # A tsibble: 1,824 x 5 [1M]
## # Key:       State, Industry [152]
## # Groups:    State, Industry [152]
##    State                        Industry                Serie~1    Month Turno~2
##    <chr>                        <chr>                   <chr>      <mth>   <dbl>
##  1 Australian Capital Territory Cafes, restaurants and~ A33498~ 2018 Jan    33.8
##  2 Australian Capital Territory Cafes, restaurants and~ A33498~ 2018 Feb    37.2
##  3 Australian Capital Territory Cafes, restaurants and~ A33498~ 2018 Mar    44.3
##  4 Australian Capital Territory Cafes, restaurants and~ A33498~ 2018 Apr    40.6
##  5 Australian Capital Territory Cafes, restaurants and~ A33498~ 2018 May    40.9
##  6 Australian Capital Territory Cafes, restaurants and~ A33498~ 2018 Jun    40.7
##  7 Australian Capital Territory Cafes, restaurants and~ A33498~ 2018 Jul    43.8
##  8 Australian Capital Territory Cafes, restaurants and~ A33498~ 2018 Aug    41.7
##  9 Australian Capital Territory Cafes, restaurants and~ A33498~ 2018 Sep    41.4
## 10 Australian Capital Territory Cafes, restaurants and~ A33498~ 2018 Oct    41.7
## # ... with 1,814 more rows, and abbreviated variable names 1: `Series ID`,
## #   2: Turnover

# ALTERNATIVE: Extract just last 12 observations of each series
# (each combination of State, Industry)
aus_retail %>%
  group_by(State, Industry) %>%
  slice((n()-11):n())

## # A tsibble: 1,824 x 5 [1M]
## # Key:       State, Industry [152]
## # Groups:    State, Industry [152]
##    State                        Industry                Serie~1    Month Turno~2
##    <chr>                        <chr>                   <chr>      <mth>   <dbl>
##  1 Australian Capital Territory Cafes, restaurants and~ A33498~ 2018 Jan    33.8
##  2 Australian Capital Territory Cafes, restaurants and~ A33498~ 2018 Feb    37.2
##  3 Australian Capital Territory Cafes, restaurants and~ A33498~ 2018 Mar    44.3
##  4 Australian Capital Territory Cafes, restaurants and~ A33498~ 2018 Apr    40.6
##  5 Australian Capital Territory Cafes, restaurants and~ A33498~ 2018 May    40.9
##  6 Australian Capital Territory Cafes, restaurants and~ A33498~ 2018 Jun    40.7
##  7 Australian Capital Territory Cafes, restaurants and~ A33498~ 2018 Jul    43.8
##  8 Australian Capital Territory Cafes, restaurants and~ A33498~ 2018 Aug    41.7
##  9 Australian Capital Territory Cafes, restaurants and~ A33498~ 2018 Sep    41.4
## 10 Australian Capital Territory Cafes, restaurants and~ A33498~ 2018 Oct    41.7
## # ... with 1,814 more rows, and abbreviated variable names 1: `Series ID`,
## #   2: Turnover
…
Detailed example of time series cross validation

We will use the data for google stock closing prices on 2015:

google_2015 <- google_stock %>% filter(year(Date) == 2015)

Step 1. Create the set of training datasets using stretch_tsibble():

google_2015_tr <- google_2015 %>%
  stretch_tsibble(.init = 20, .step = 1) %>%
  relocate(Date, Symbol, .id) # reorder column

google_2015_tr

## # A tsibble: 31,688 x 10 [1]
## # Key:       Symbol, .id [233]
##    Date       Symbol   .id  Open  High   Low Close Adj_Close  Volume   day
##    <date>     <chr>  <int> <dbl> <dbl> <dbl> <dbl>     <dbl>   <dbl> <int>
##  1 2015-01-02 GOOG       1  526.  528.  521.  522.      522. 1447600     1
##  2 2015-01-05 GOOG       1  520.  521.  510.  511.      511. 2059800     2
##  3 2015-01-06 GOOG       1  512.  513.  498.  499.      499. 2899900     3
##  4 2015-01-07 GOOG       1  504.  504.  497.  498.      498. 2065100     4
##  5 2015-01-08 GOOG       1  495.  501.  488.  500.      500. 3353600     5
##  6 2015-01-09 GOOG       1  502.  502.  492.  493.      493. 2069400     6
##  7 2015-01-12 GOOG       1  492.  493.  485.  490.      490. 2322400     7
##  8 2015-01-13 GOOG       1  496.  500.  490.  493.      493. 2370500     8
##  9 2015-01-14 GOOG       1  492.  500.  490.  498.      498. 2235700     9
## 10 2015-01-15 GOOG       1  503.  503.  495.  499.      499. 2715800    10
## # ... with 31,678 more rows
…
Becase .step was set to 1, the training set is increased one observation at a time

Step 2: fit the models to be assessed to the training datasets generated before

The following code fits a drift and a mean model to each of the training datasets! (2 x 233 = 466 models!)

google_2015_fit_cv <- google_2015_tr %>%
                        model(
                              Drift = RW(Close ~ drift()),
                              Mean = MEAN(Close)
                              )

google_2015_fit_cv

## # A mable: 233 x 4
## # Key:     Symbol, .id [233]
##    Symbol   .id         Drift    Mean
##    <chr>  <int>       <model> <model>
##  1 GOOG       1 <RW w/ drift>  <MEAN>
##  2 GOOG       2 <RW w/ drift>  <MEAN>
##  3 GOOG       3 <RW w/ drift>  <MEAN>
##  4 GOOG       4 <RW w/ drift>  <MEAN>
##  5 GOOG       5 <RW w/ drift>  <MEAN>
##  6 GOOG       6 <RW w/ drift>  <MEAN>
##  7 GOOG       7 <RW w/ drift>  <MEAN>
##  8 GOOG       8 <RW w/ drift>  <MEAN>
##  9 GOOG       9 <RW w/ drift>  <MEAN>
## 10 GOOG      10 <RW w/ drift>  <MEAN>
## # ... with 223 more rows
…
The combination of the columns Symbol and .id indicate to which training dataset the model has been fit.

The columns Drift and Mean (used choices for the names) correspond to the models fitted to each of these training datasets-

Step 3: generate forecasts

Let us thus generateforecasts of a horizon of up to 8 training days for each of those models:

# TSCV accuracy
google_2015_fc_cv <- google_2015_fit_cv %>% forecast(h = 8)

google_2015_fc_cv

## # A fable: 3,728 x 6 [1]
## # Key:     Symbol, .id, .model [466]
##    Symbol   .id .model   day        Close .mean
##    <chr>  <int> <chr>  <dbl>       <dist> <dbl>
##  1 GOOG       1 Drift     21   N(532, 97)  532.
##  2 GOOG       1 Drift     22  N(533, 203)  533.
##  3 GOOG       1 Drift     23  N(533, 320)  533.
##  4 GOOG       1 Drift     24  N(534, 447)  534.
##  5 GOOG       1 Drift     25  N(534, 584)  534.
##  6 GOOG       1 Drift     26  N(535, 731)  535.
##  7 GOOG       1 Drift     27  N(535, 889)  535.
##  8 GOOG       1 Drift     28 N(536, 1056)  536.
##  9 GOOG       1 Mean      21  N(510, 220)  510.
## 10 GOOG       1 Mean      22  N(510, 220)  510.
## # ... with 3,718 more rows
…
4.1 Generate accuracy metrics for each combination of model and forecast horizon.

To achieve this, we first need to add an additional column to the foregoing forecast table to identify to which horizon each forecast corresponds. That is, we need a row counter that resets everytime the combination of .id and model changes:

google_2015_fc_cv <- google_2015_fc_cv %>%
  group_by(.id, .model) %>%
  mutate(h = row_number()) %>%
  ungroup() %>%
  as_fable(response = "Close", distribution = Close) %>% 
  select(h, everything()) # Reorder columns

google_2015_fc_cv

## # A fable: 3,728 x 7 [1]
## # Key:     Symbol, .id, .model [466]
##        h Symbol   .id .model   day        Close .mean
##    <int> <chr>  <int> <chr>  <dbl>       <dist> <dbl>
##  1     1 GOOG       1 Drift     21   N(532, 97)  532.
##  2     2 GOOG       1 Drift     22  N(533, 203)  533.
##  3     3 GOOG       1 Drift     23  N(533, 320)  533.
##  4     4 GOOG       1 Drift     24  N(534, 447)  534.
##  5     5 GOOG       1 Drift     25  N(534, 584)  534.
##  6     6 GOOG       1 Drift     26  N(535, 731)  535.
##  7     7 GOOG       1 Drift     27  N(535, 889)  535.
##  8     8 GOOG       1 Drift     28 N(536, 1056)  536.
##  9     1 GOOG       1 Mean      21  N(510, 220)  510.
## 10     2 GOOG       1 Mean      22  N(510, 220)  510.
## # ... with 3,718 more rows
…
Task

Perform cross validation on the australian beer production dataset. Use the dataset recent_production created during this lesson and the four benchmark models.

Step 0. Identify your dataset and think about which variables you need

We will work with recent_production, the total dataset, and we will apply stretch_tsibble() to this dataset to generate our set of test and training datasets.

For convenience I will select only the varialbes relevant to the analysis

beer_production <- select(recent_production, Quarter, Beer)
beer_production

## # A tsibble: 74 x 2 [1Q]
##    Quarter  Beer
##      <qtr> <dbl>
##  1 1992 Q1   443
##  2 1992 Q2   410
##  3 1992 Q3   420
##  4 1992 Q4   532
##  5 1993 Q1   433
##  6 1993 Q2   421
##  7 1993 Q3   410
##  8 1993 Q4   512
##  9 1994 Q1   449
## 10 1994 Q2   381
## # ... with 64 more rows
…
