6_4_Point_Forecast_Accuracy_CrossValidation
…
A perfect fit to the training data can always be obtained with enough parameters (over-fitting)

Over-fitting a model to data is just as bad as not identifying a pattern in the data.

Functions to subset a time series

filter()

filter() can be used to filter out a portion of a time series.

# Data from 1995 onwards
aus_production %>% filter(year(Quarter) >= 1995)

## # A tsibble: 62 x 7 [1Q]
##    Quarter  Beer Tobacco Bricks Cement Electricity   Gas
##      <qtr> <dbl>   <dbl>  <dbl>  <dbl>       <dbl> <dbl>
##  1 1995 Q1   426    4714    430   1626       41768   131
##  2 1995 Q2   408    3939    457   1703       43686   167
##  3 1995 Q3   416    6137    417   1733       46022   181
##  4 1995 Q4   520    4739    370   1545       42800   145
##  5 1996 Q1   409    4275    310   1526       43661   133
##  6 1996 Q2   398    5239    358   1593       44707   162
##  7 1996 Q3   398    6293    379   1706       46326   184
##  8 1996 Q4   507    5575    369   1699       43346   146
##  9 1997 Q1   432    4802    330   1511       43938   135
## 10 1997 Q2   398    5523    390   1785       45828   171
## # ... with 52 more rows

#Equivalent to the above
aus_production %>% filter_index("1995 Q1" ~ .)

## # A tsibble: 62 x 7 [1Q]
##    Quarter  Beer Tobacco Bricks Cement Electricity   Gas
##      <qtr> <dbl>   <dbl>  <dbl>  <dbl>       <dbl> <dbl>
##  1 1995 Q1   426    4714    430   1626       41768   131
##  2 1995 Q2   408    3939    457   1703       43686   167
##  3 1995 Q3   416    6137    417   1733       46022   181
##  4 1995 Q4   520    4739    370   1545       42800   145
##  5 1996 Q1   409    4275    310   1526       43661   133
##  6 1996 Q2   398    5239    358   1593       44707   162
##  7 1996 Q3   398    6293    379   1706       46326   184
##  8 1996 Q4   507    5575    369   1699       43346   146
##  9 1997 Q1   432    4802    330   1511       43938   135
## 10 1997 Q2   398    5523    390   1785       45828   171
## # ... with 52 more rows
…
# Extact the first 12 points (1 year) of data of each combination of State, Industry
aus_retail %>%
  group_by(State, Industry) %>%
  slice(1:12)

## # A tsibble: 1,824 x 5 [1M]
## # Key:       State, Industry [152]
## # Groups:    State, Industry [152]
##    State                        Industry                Serie~1    Month Turno~2
##    <chr>                        <chr>                   <chr>      <mth>   <dbl>
##  1 Australian Capital Territory Cafes, restaurants and~ A33498~ 1982 Apr     4.4
##  2 Australian Capital Territory Cafes, restaurants and~ A33498~ 1982 May     3.4
##  3 Australian Capital Territory Cafes, restaurants and~ A33498~ 1982 Jun     3.6
##  4 Australian Capital Territory Cafes, restaurants and~ A33498~ 1982 Jul     4  
##  5 Australian Capital Territory Cafes, restaurants and~ A33498~ 1982 Aug     3.6
##  6 Australian Capital Territory Cafes, restaurants and~ A33498~ 1982 Sep     4.2
##  7 Australian Capital Territory Cafes, restaurants and~ A33498~ 1982 Oct     4.8
##  8 Australian Capital Territory Cafes, restaurants and~ A33498~ 1982 Nov     5.4
##  9 Australian Capital Territory Cafes, restaurants and~ A33498~ 1982 Dec     6.9
## 10 Australian Capital Territory Cafes, restaurants and~ A33498~ 1983 Jan     3.8
## # ... with 1,814 more rows, and abbreviated variable names 1: `Series ID`,
## #   2: Turnover
…
.x: tsibble to be split following the time series cross validation strategy

.step: a positive integer for incremental step

.init: a positive integer for an initial size of the training set

Example: Time-Series Cross Validation accuracy for 1-step forecasts

google_2015_tr <- google_2015 %>%
  stretch_tsibble(.init = 3, .step = 1) %>%
  relocate(Date, Symbol, .id) # reorder column

google_2015_tr

## # A tsibble: 31,875 x 10 [1]
## # Key:       Symbol, .id [250]
##    Date       Symbol   .id  Open  High   Low Close Adj_Close  Volume   day
##    <date>     <chr>  <int> <dbl> <dbl> <dbl> <dbl>     <dbl>   <dbl> <int>
##  1 2015-01-02 GOOG       1  526.  528.  521.  522.      522. 1447600     1
##  2 2015-01-05 GOOG       1  520.  521.  510.  511.      511. 2059800     2
##  3 2015-01-06 GOOG       1  512.  513.  498.  499.      499. 2899900     3
##  4 2015-01-02 GOOG       2  526.  528.  521.  522.      522. 1447600     1
##  5 2015-01-05 GOOG       2  520.  521.  510.  511.      511. 2059800     2
##  6 2015-01-06 GOOG       2  512.  513.  498.  499.      499. 2899900     3
##  7 2015-01-07 GOOG       2  504.  504.  497.  498.      498. 2065100     4
##  8 2015-01-02 GOOG       3  526.  528.  521.  522.      522. 1447600     1
##  9 2015-01-05 GOOG       3  520.  521.  510.  511.      511. 2059800     2
## 10 2015-01-06 GOOG       3  512.  513.  498.  499.      499. 2899900     3
## # ... with 31,865 more rows
…
As you can see, 250 training datasets have been generated

The column .id is an identifier for each of the training sets.

Because .init was set to 3, the first training set has three elements

Becase .step was set to 1, the training set is increased one step a t a time

The following code fits a drift model to each of the training datasets! (250 models!)

google_2015_tr %>%
  model(RW(Close ~ drift()))

## # A mable: 250 x 3
## # Key:     Symbol, .id [250]
##    Symbol   .id `RW(Close ~ drift())`
##    <chr>  <int>               <model>
##  1 GOOG       1         <RW w/ drift>
##  2 GOOG       2         <RW w/ drift>
##  3 GOOG       3         <RW w/ drift>
##  4 GOOG       4         <RW w/ drift>
##  5 GOOG       5         <RW w/ drift>
##  6 GOOG       6         <RW w/ drift>
##  7 GOOG       7         <RW w/ drift>
##  8 GOOG       8         <RW w/ drift>
##  9 GOOG       9         <RW w/ drift>
## 10 GOOG      10         <RW w/ drift>
## # ... with 240 more rows
…
As you can see these metrics are smaller (better) because they correspond to fitted values rather than true forecasts! The proper way to evaluate the performance of a model is to expose it to data it has not seen before, with which it will tend to perform worse.

Example: multi-step forecast horizon with cross-validation:

# This generates 250 training datasets as before
google_2015_tr <- google_2015 %>%
  stretch_tsibble(.init = 8, .step = 1)

fc <- google_2015_tr %>%
  model(RW(Close ~ drift())) %>%
  forecast(h = 8)

fc

## # A fable: 1,960 x 6 [1]
## # Key:     .id, Symbol, .model [245]
##      .id Symbol .model                day       Close .mean
##    <int> <chr>  <chr>               <dbl>      <dist> <dbl>
##  1     1 GOOG   RW(Close ~ drift())     9  N(489, 36)  489.
##  2     1 GOOG   RW(Close ~ drift())    10  N(485, 82)  485.
##  3     1 GOOG   RW(Close ~ drift())    11 N(481, 138)  481.
##  4     1 GOOG   RW(Close ~ drift())    12 N(477, 204)  477.
##  5     1 GOOG   RW(Close ~ drift())    13 N(473, 280)  473.
##  6     1 GOOG   RW(Close ~ drift())    14 N(469, 367)  469.
##  7     1 GOOG   RW(Close ~ drift())    15 N(465, 464)  465.
##  8     1 GOOG   RW(Close ~ drift())    16 N(461, 571)  461.
##  9     2 GOOG   RW(Close ~ drift())    10  N(495, 40)  495.
## 10     2 GOOG   RW(Close ~ drift())    11  N(492, 90)  492.
## # ... with 1,950 more rows

fc %>%
  group_by(.id) %>%
  mutate(h = row_number()) %>%
  ungroup()

## # A fable: 1,960 x 7 [1]
## # Key:     .id, Symbol, .model [245]
##      .id Symbol .model                day       Close .mean     h
##    <int> <chr>  <chr>               <dbl>      <dist> <dbl> <int>
##  1     1 GOOG   RW(Close ~ drift())     9  N(489, 36)  489.     1
##  2     1 GOOG   RW(Close ~ drift())    10  N(485, 82)  485.     2
##  3     1 GOOG   RW(Close ~ drift())    11 N(481, 138)  481.     3
##  4     1 GOOG   RW(Close ~ drift())    12 N(477, 204)  477.     4
##  5     1 GOOG   RW(Close ~ drift())    13 N(473, 280)  473.     5
##  6     1 GOOG   RW(Close ~ drift())    14 N(469, 367)  469.     6
##  7     1 GOOG   RW(Close ~ drift())    15 N(465, 464)  465.     7
##  8     1 GOOG   RW(Close ~ drift())    16 N(461, 571)  461.     8
##  9     2 GOOG   RW(Close ~ drift())    10  N(495, 40)  495.     1
## 10     2 GOOG   RW(Close ~ drift())    11  N(492, 90)  492.     2
## # ... with 1,950 more rows

fc <- google_2015_tr %>%
  model(RW(Close ~ drift())) %>%
  forecast(h = 8) %>%
  group_by(.id) %>%
  mutate(h = row_number()) %>%
  ungroup() %>%
  as_fable(response = "Close", distribution = Close)

fc

## # A fable: 1,960 x 7 [1]
## # Key:     .id, Symbol, .model [245]
##      .id Symbol .model                day       Close .mean     h
##    <int> <chr>  <chr>               <dbl>      <dist> <dbl> <int>
##  1     1 GOOG   RW(Close ~ drift())     9  N(489, 36)  489.     1
##  2     1 GOOG   RW(Close ~ drift())    10  N(485, 82)  485.     2
##  3     1 GOOG   RW(Close ~ drift())    11 N(481, 138)  481.     3
##  4     1 GOOG   RW(Close ~ drift())    12 N(477, 204)  477.     4
##  5     1 GOOG   RW(Close ~ drift())    13 N(473, 280)  473.     5
##  6     1 GOOG   RW(Close ~ drift())    14 N(469, 367)  469.     6
##  7     1 GOOG   RW(Close ~ drift())    15 N(465, 464)  465.     7
##  8     1 GOOG   RW(Close ~ drift())    16 N(461, 571)  461.     8
##  9     2 GOOG   RW(Close ~ drift())    10  N(495, 40)  495.     1
## 10     2 GOOG   RW(Close ~ drift())    11  N(492, 90)  492.     2
## # ... with 1,950 more rows
…
The graph evaluates the forecasting performance of the drift model for 1- to 8-step-ahead forecasts based on the RMSE computed using cross-validation across the 250 training datasets created using stretch_tsibble()

Exercise cross-validation: perform cross validation on the australian beer production dataset. Use the dataset recent_production created during this lesson and the four benchmark models.

Identify your dataset and think about which variables you need

We will work with recent_production, the total dataset, and we will apply stretch_tsibble() to this dataset to generate our set of test and training datasets.

For convenience I will select only the varialbes relevant to the analysis

beer_production <- select(recent_production, Quarter, Beer)
beer_production

## # A tsibble: 74 x 2 [1Q]
##    Quarter  Beer
##      <qtr> <dbl>
##  1 1992 Q1   443
##  2 1992 Q2   410
##  3 1992 Q3   420
##  4 1992 Q4   532
##  5 1993 Q1   433
##  6 1993 Q2   421
##  7 1993 Q3   410
##  8 1993 Q4   512
##  9 1994 Q1   449
## 10 1994 Q2   381
## # ... with 64 more rows
…
