6_7_Exercises_MidTerm_Review
…
We are interested in the industry Takeaway food services.

Compute the total turnover per month of all australian States combined. Plot the resulting series:

aus_retail

## # A tsibble: 64,532 x 5 [1M]
## # Key:       State, Industry [152]
##    State                        Industry                Serie~1    Month Turno~2
##    <chr>                        <chr>                   <chr>      <mth>   <dbl>
##  1 Australian Capital Territory Cafes, restaurants and~ A33498~ 1982 Apr     4.4
##  2 Australian Capital Territory Cafes, restaurants and~ A33498~ 1982 May     3.4
##  3 Australian Capital Territory Cafes, restaurants and~ A33498~ 1982 Jun     3.6
##  4 Australian Capital Territory Cafes, restaurants and~ A33498~ 1982 Jul     4  
##  5 Australian Capital Territory Cafes, restaurants and~ A33498~ 1982 Aug     3.6
##  6 Australian Capital Territory Cafes, restaurants and~ A33498~ 1982 Sep     4.2
##  7 Australian Capital Territory Cafes, restaurants and~ A33498~ 1982 Oct     4.8
##  8 Australian Capital Territory Cafes, restaurants and~ A33498~ 1982 Nov     5.4
##  9 Australian Capital Territory Cafes, restaurants and~ A33498~ 1982 Dec     6.9
## 10 Australian Capital Territory Cafes, restaurants and~ A33498~ 1983 Jan     3.8
## # ... with 64,522 more rows, and abbreviated variable names 1: `Series ID`,
## #   2: Turnover

aus_retail %>%
  filter(Industry == "Takeaway food services") %>%
  index_by(Month) %>% 
  summarize(
    Turnover = sum(Turnover)
  )

## # A tsibble: 441 x 2 [1M]
##       Month Turnover
##       <mth>    <dbl>
##  1 1982 Apr     194.
##  2 1982 May     194.
##  3 1982 Jun     186.
##  4 1982 Jul     190.
##  5 1982 Aug     190.
##  6 1982 Sep     195.
##  7 1982 Oct     209 
##  8 1982 Nov     212.
##  9 1982 Dec     238.
## 10 1983 Jan     225.
## # ... with 431 more rows
…
decomposition_model applyting an STL decomposition with no transformation (technically incorrect since data is multiplicative). Use a drift model for the seasonally adjusted component and a seas. nave model for the seasonal component.

naive model

mean model

seasonal naive model

drift model

simple exponential smoothing model

train %>% model(STL(log(Turnover))) %>% components()

## # A dable: 393 x 7 [1M]
## # Key:     .model [1]
## # :        log(Turnover) = trend + season_year + remainder
##    .model                Month `log(Turnover)` trend season_y~1 remain~2 seaso~3
##    <chr>                 <mth>           <dbl> <dbl>      <dbl>    <dbl>   <dbl>
##  1 STL(log(Turnover)) 1982 Apr            5.27  5.28    -0.0345  0.0223     5.30
##  2 STL(log(Turnover)) 1982 May            5.27  5.28    -0.0147 -0.00238    5.28
##  3 STL(log(Turnover)) 1982 Jun            5.23  5.29    -0.0667  0.00371    5.29
##  4 STL(log(Turnover)) 1982 Jul            5.24  5.30    -0.0261 -0.0259     5.27
##  5 STL(log(Turnover)) 1982 Aug            5.25  5.30    -0.0126 -0.0397     5.26
##  6 STL(log(Turnover)) 1982 Sep            5.27  5.31    -0.0153 -0.0176     5.29
##  7 STL(log(Turnover)) 1982 Oct            5.34  5.31     0.0175  0.0119     5.32
##  8 STL(log(Turnover)) 1982 Nov            5.36  5.32     0.0229  0.0178     5.34
##  9 STL(log(Turnover)) 1982 Dec            5.47  5.32     0.114   0.0352     5.36
## 10 STL(log(Turnover)) 1983 Jan            5.41  5.33     0.0621  0.0236     5.35
## # ... with 383 more rows, and abbreviated variable names 1: season_year,
## #   2: remainder, 3: season_adjust
…
fit

## # A mable: 1 x 8
##                  decomp_log                 decomp_bc                    decomp
##                     <model>                   <model>                   <model>
## 1 <STL decomposition model> <STL decomposition model> <STL decomposition model>
## # ... with 5 more variables: naive <model>, drift <model>, mean <model>,
## #   snaive <model>, SES <model>

fc <- fit %>% forecast(h = "4 years")
fc

## # A fable: 384 x 4 [1M]
## # Key:     .model [8]
##    .model        Month           Turnover .mean
##    <chr>         <mth>             <dist> <dbl>
##  1 decomp_log 2015 Jan t(N(7.2, 0.00046)) 1369.
##  2 decomp_log 2015 Feb t(N(7.1, 0.00092)) 1222.
##  3 decomp_log 2015 Mar  t(N(7.2, 0.0014)) 1364.
##  4 decomp_log 2015 Apr  t(N(7.2, 0.0018)) 1356.
##  5 decomp_log 2015 May  t(N(7.2, 0.0023)) 1374.
##  6 decomp_log 2015 Jun  t(N(7.2, 0.0028)) 1355.
##  7 decomp_log 2015 Jul  t(N(7.3, 0.0032)) 1431.
##  8 decomp_log 2015 Aug  t(N(7.3, 0.0037)) 1441.
##  9 decomp_log 2015 Sep  t(N(7.3, 0.0042)) 1419.
## 10 decomp_log 2015 Oct  t(N(7.3, 0.0046)) 1471.
## # ... with 374 more rows
…
Extract data from the Gold Coast region using filter() and aggregate total overnight trips (sum over Purpose) using summarise(). Call this new dataset gc_tourism. Create a timeplot of gc_tourism as well as a correlogram.

gc_tourism <- tourism %>%
  filter(Region == "Gold Coast") %>%
  summarize(
    Trips = sum(Trips)
  )

gc_tourism

## # A tsibble: 80 x 2 [1Q]
##    Quarter Trips
##      <qtr> <dbl>
##  1 1998 Q1  827.
##  2 1998 Q2  681.
##  3 1998 Q3  839.
##  4 1998 Q4  820.
##  5 1999 Q1  987.
##  6 1999 Q2  751.
##  7 1999 Q3  822.
##  8 1999 Q4  914.
##  9 2000 Q1  871.
## 10 2000 Q2  780.
## # ... with 70 more rows
…
