7_1_Simple_Exponential_Smoothing - Theory
…
## # A tibble: 2 x 4
##   Country .model                                                   term  estim~1
##   <fct>   <chr>                                                    <chr>   <dbl>
## 1 Algeria "ETS(Exports ~ error(\"A\") + trend(\"N\") + season(\"N~ alpha   0.840
## 2 Algeria "ETS(Exports ~ error(\"A\") + trend(\"N\") + season(\"N~ l[0]   39.5  
## # ... with abbreviated variable name 1: estimate

In this case we have \(\alpha = 0.84\) and \(l_{t0} = 39.54\).

Once the model has been fitted, we can use augment() as usual to examine the fitted values and the residuals:

fit %>% augment() %>% select(Year, Exports, .fitted)

## # A tsibble: 58 x 3 [1Y]
##     Year Exports .fitted
##    <dbl>   <dbl>   <dbl>
##  1  1960    39.0    39.5
##  2  1961    46.2    39.1
##  3  1962    19.8    45.1
##  4  1963    24.7    23.8
##  5  1964    25.1    24.6
##  6  1965    22.6    25.0
##  7  1966    26.0    23.0
##  8  1967    23.4    25.5
##  9  1968    23.1    23.8
## 10  1969    23.8    23.2
## # ... with 48 more rows
…
