7_3_ESmoothing_Trended
…
To validate the results we will use time series cross validation. Please go over this very important concept if you have forgotten about it. We will go step by step to review the process:

Create the different datasets used for cross validation using stretch_tsibble(). Smallest dataset set to 10 observations.

www_usage_cv <- www_usage %>%
                stretch_tsibble(.init = 10)

# Examine the table created
www_usage_cv

# A tsibble: 5,005 x 3 [1]
# Key:       .id [91]
   index value   .id
   <dbl> <dbl> <int>
 1     1    88     1
 2     2    84     1
 3     3    85     1
 4     4    85     1
 5     5    84     1
 6     6    85     1
 7     7    83     1
 8     8    85     1
 9     9    88     1
10    10    89     1
# ... with 4,995 more rows
…
Fit the models to be compared to the datasets used for cross-validation:

fit_cv <-
  www_usage_cv %>%  
    model(
      SES = ETS(value ~ error("A") + trend("N") + season("N")),
      Holt = ETS(value ~ error("A") + trend("A") + season("N")),
      Damped = ETS(value ~ error("A") + trend("Ad") +
                     season("N"))
      )

fit_cv

# A mable: 91 x 4
# Key:     .id [91]
     .id          SES         Holt        Damped
   <int>      <model>      <model>       <model>
 1     1 <ETS(A,N,N)> <ETS(A,A,N)> <ETS(A,Ad,N)>
 2     2 <ETS(A,N,N)> <ETS(A,A,N)> <ETS(A,Ad,N)>
 3     3 <ETS(A,N,N)> <ETS(A,A,N)> <ETS(A,Ad,N)>
 4     4 <ETS(A,N,N)> <ETS(A,A,N)> <ETS(A,Ad,N)>
 5     5 <ETS(A,N,N)> <ETS(A,A,N)> <ETS(A,Ad,N)>
 6     6 <ETS(A,N,N)> <ETS(A,A,N)> <ETS(A,Ad,N)>
 7     7 <ETS(A,N,N)> <ETS(A,A,N)> <ETS(A,Ad,N)>
 8     8 <ETS(A,N,N)> <ETS(A,A,N)> <ETS(A,Ad,N)>
 9     9 <ETS(A,N,N)> <ETS(A,A,N)> <ETS(A,Ad,N)>
10    10 <ETS(A,N,N)> <ETS(A,A,N)> <ETS(A,Ad,N)>
# ... with 81 more rows
…
