7_4_ESmoothing_Trended_Seasonal
…
Example: daily data

Holt-Winters method can be used for daily type of data.

m = 7 (seasonal period, 1 week)

sth_cross_ped <- pedestrian %>%
  filter(Date >= "2016-07-01",
         Sensor == "Southern Cross Station") %>%
  index_by(Date) %>%
  summarise(Count = sum(Count)/1000)

sth_cross_ped

# A tsibble: 184 x 2 [1D]
   Date       Count
   <date>     <dbl>
 1 2016-07-01 17.6 
 2 2016-07-02  2.52
 3 2016-07-03  1.73
 4 2016-07-04 17.3 
 5 2016-07-05 16.5 
 6 2016-07-06 16.8 
 7 2016-07-07 17.0 
 8 2016-07-08 17.2 
 9 2016-07-09  3.21
10 2016-07-10  1.75
# … with 174 more rows
…
The model has identified the weekly seasonal pattern and the increasing trend at the end of the data, and the forecasts are a close match to the test data.

Homework 3

For this exercise use the quarterly number of arrivals to Australia from New Zealand, 1981 Q1 – 2012 Q3, from data set aus_arrivals.

nz_arrivals <- aus_arrivals %>% filter(Origin == "NZ")
nz_arrivals

# A tsibble: 127 x 3 [1Q]
# Key:       Origin [1]
   Quarter Origin Arrivals
     <qtr> <chr>     <int>
 1 1981 Q1 NZ        49140
 2 1981 Q2 NZ        87467
 3 1981 Q3 NZ        85841
 4 1981 Q4 NZ        61882
 5 1982 Q1 NZ        42045
 6 1982 Q2 NZ        63081
 7 1982 Q3 NZ        73275
 8 1982 Q4 NZ        54808
 9 1983 Q1 NZ        41030
10 1983 Q2 NZ        56155
# … with 117 more rows
…
