8_1_ARIMA_Differencing
…
We can see that lag-1 differences are good at removing the trend, but the seasonal pattern still remains. Let us

a10 <- a10 %>% mutate(
            log_cost_1d_12d = log_cost_1d %>% difference(12)
          ) 

a10

# A tsibble: 204 x 5 [1M]
      Month  Cost log_cost log_cost_1d log_cost_1d_12d
      <mth> <dbl>    <dbl>       <dbl>           <dbl>
 1 1991 Jul  3.53     1.26     NA                   NA
 2 1991 Aug  3.18     1.16     -0.103               NA
 3 1991 Sep  3.25     1.18      0.0222              NA
 4 1991 Oct  3.61     1.28      0.105               NA
 5 1991 Nov  3.57     1.27     -0.0126              NA
 6 1991 Dec  4.31     1.46      0.189               NA
 7 1992 Jan  5.09     1.63      0.167               NA
 8 1992 Feb  2.81     1.03     -0.592               NA
 9 1992 Mar  2.99     1.09      0.0591              NA
10 1992 Apr  3.20     1.16      0.0708              NA
# … with 194 more rows
…
