asgmt1_tsgraphs
…
As you can see, after filtering for ATC2 == H02 there are 4 entries per month corresponding to different combinations of the columns Concession and Type. We would like to add the Cost associated to those 4 entries for every month, to obtain a time series of the total cost per month. Use index_by() and summarise() to get the total cost per month (1 point)

h02_monthly <- PBS %>%
  filter(ATC2 == "H02") %>%
  index_by(Month) %>%
  summarise(
    Cost = sum(Cost)
  )

h02_monthly

# A tsibble: 204 x 2 [1M]
      Month   Cost
      <mth>  <dbl>
 1 1991 Jul 429795
 2 1991 Aug 400906
 3 1991 Sep 432159
 4 1991 Oct 492543
 5 1991 Nov 502369
 6 1991 Dec 602652
 7 1992 Jan 660119
 8 1992 Feb 336220
 9 1992 Mar 351348
10 1992 Apr 379808
# ... with 194 more rows
…
# The strong yearly seasonality is clear in the spike of the ACF every 12 lags(). 
# The lagplots show a separate cluster of points in almost every graph that matches 
# the large sales in January.

2. (3.3 points)

Use the following graph functions: autoplot(), gg_season(), gg_subseries(), gg_lag(), ACF() and explore features of the time series Total Private from the dataset us_employment (loaded with fpp3) (3.3 points)

total_private <- us_employment %>%
  filter(Title == "Total Private")

total_private

# A tsibble: 969 x 4 [1M]
# Key:       Series_ID [1]
      Month Series_ID     Title         Employed
      <mth> <chr>         <chr>            <dbl>
 1 1939 Jan CEU0500000001 Total Private    25338
 2 1939 Feb CEU0500000001 Total Private    25447
 3 1939 Mar CEU0500000001 Total Private    25833
 4 1939 Apr CEU0500000001 Total Private    25801
 5 1939 May CEU0500000001 Total Private    26113
 6 1939 Jun CEU0500000001 Total Private    26485
 7 1939 Jul CEU0500000001 Total Private    26481
 8 1939 Aug CEU0500000001 Total Private    26848
 9 1939 Sep CEU0500000001 Total Private    27468
10 1939 Oct CEU0500000001 Total Private    27830
# ... with 959 more rows
…
3.2 Amaxon Stock Prices

The following code computes the daily changes in Amazon closing stock prices from 2018 onwards:

damzn <- gafa_stock %>%
  filter(Symbol == "AMZN", year(Date) >= 2018) %>%
  mutate(trading_day = row_number()) %>%
  update_tsibble(index = trading_day, regular = TRUE) %>%
  mutate(diff = difference(Close))

damzn

# A tsibble: 251 x 10 [1]
# Key:       Symbol [1]
   Symbol Date        Open  High   Low Close Adj_Close  Volume trading_~1   diff
   <chr>  <date>     <dbl> <dbl> <dbl> <dbl>     <dbl>   <dbl>      <int>  <dbl>
 1 AMZN   2018-01-02 1172  1190  1171. 1189.     1189. 2694500          1 NA    
 2 AMZN   2018-01-03 1188. 1205. 1188. 1204.     1204. 3108800          2 15.2  
 3 AMZN   2018-01-04 1205  1216. 1205. 1210.     1210. 3022100          3  5.39 
 4 AMZN   2018-01-05 1218. 1229. 1210  1229.     1229. 3544700          4 19.6  
 5 AMZN   2018-01-08 1236  1253. 1232. 1247.     1247. 4279500          5 17.7  
 6 AMZN   2018-01-09 1257. 1259. 1242. 1253.     1253. 3661300          6  5.83 
 7 AMZN   2018-01-10 1245. 1254. 1237. 1254.     1254. 2686000          7  1.63 
 8 AMZN   2018-01-11 1260. 1277. 1256. 1277.     1277. 3125000          8 22.4  
 9 AMZN   2018-01-12 1273. 1306. 1273. 1305.     1305. 5443700          9 28.5  
10 AMZN   2018-01-16 1323  1340. 1292. 1305.     1305. 7220700         10 -0.340
# ... with 241 more rows, and abbreviated variable name 1: trading_day
…
