Time Series Analysis - Fina Exam - May 2022
…
7. (1 point) Answer the following questions regarding the output of question 6

8. (0.5 points) For the best model in terms of RMSE of the residuals, assess and interpret the autocorrelation of the residuals (max 75 words but be as succint as possible).

9. (1.5 points) For every model fitted in 5, generate forecasts of up to 1 seasonal period. Then evaluate the errors of those forecasts (i.e.compare the forecasts to the actual values of the test datasets using the accuracy() function). The output should return the error metrics for each model and forecast horizon.

10. (1.5 points) Instead of fitting the models to just two datasets, perform cross-validation using stretch_tsibble() to generate all the training datasets

cafes <- aus_retail %>% 
  filter(`Series ID` == "A3349849A")

cafes

## # A tsibble: 441 x 5 [1M]
## # Key:       State, Industry [1]
##    State                        Industry           `Series ID`    Month Turnover
##    <chr>                        <chr>              <chr>          <mth>    <dbl>
##  1 Australian Capital Territory Cafes, restaurant~ A3349849A   1982 Apr      4.4
##  2 Australian Capital Territory Cafes, restaurant~ A3349849A   1982 May      3.4
##  3 Australian Capital Territory Cafes, restaurant~ A3349849A   1982 Jun      3.6
##  4 Australian Capital Territory Cafes, restaurant~ A3349849A   1982 Jul      4  
##  5 Australian Capital Territory Cafes, restaurant~ A3349849A   1982 Aug      3.6
##  6 Australian Capital Territory Cafes, restaurant~ A3349849A   1982 Sep      4.2
##  7 Australian Capital Territory Cafes, restaurant~ A3349849A   1982 Oct      4.8
##  8 Australian Capital Territory Cafes, restaurant~ A3349849A   1982 Nov      5.4
##  9 Australian Capital Territory Cafes, restaurant~ A3349849A   1982 Dec      6.9
## 10 Australian Capital Territory Cafes, restaurant~ A3349849A   1983 Jan      3.8
## # ... with 431 more rows
…
## Warning: 1 error encountered
## [1] subscript out of bounds

## Warning: 1 error encountered
## [1] subscript out of bounds

## Warning: 1 error encountered
## [1] subscript out of bounds

## Warning: 1 error encountered
## [1] subscript out of bounds

summary

## # A tibble: 120 x 11
##        h .model   .type      ME   RMSE    MAE     MPE   MAPE   MASE  RMSSE  ACF1
##    <int> <chr>    <chr>   <dbl>  <dbl>  <dbl>   <dbl>  <dbl>  <dbl>  <dbl> <dbl>
##  1     1 decomp_~ Test  -0.529  0.529  0.529   -2.82   2.82  0.286  0.219     NA
##  2     1 decomp_~ Test  -0.254  0.254  0.254   -1.00   1.00  0.0974 0.0731    NA
##  3     1 mean_60  Test   6.13   6.13   6.13    32.6   32.6   3.31   2.54      NA
##  4     1 mean_80  Test   9.94   9.94   9.94    39.3   39.3   3.82   2.87      NA
##  5     1 naive_60 Test  -0.100  0.100  0.100   -0.532  0.532 0.0540 0.0414    NA
##  6     1 naive_80 Test   0.300  0.300  0.300    1.19   1.19  0.115  0.0865    NA
##  7     1 SES_60   Test   0.0700 0.0700 0.0700   0.373  0.373 0.0378 0.0290    NA
##  8     1 SES_80   Test  -0.244  0.244  0.244   -0.963  0.963 0.0936 0.0703    NA
##  9     1 snaive_~ Test  -5.2    5.2    5.2    -27.7   27.7   2.81   2.15      NA
## 10     1 snaive_~ Test  -6      6      6      -23.7   23.7   2.31   1.73      NA
## # ... with 110 more rows
…
