8_TS_BDBA_2022F_Midterm
…
Rows: 83 Columns: 4
── Column specification ────────────────────────────────────────────────────────
Delimiter: ","
chr (3): period, value, type
lgl (1): note

ℹ Use `spec()` to retrieve the full column specification for this data.
ℹ Specify the column types or set `show_col_types = FALSE` to quiet this message.
Using `ym` as index variable.

            # mutate(t = gsub(".", "", value, fixed=TRUE))
            
sp_arrivals

# A tsibble: 83 x 2 [1M]
         ym   value
      <mth>   <dbl>
 1 2015 Oct 6432341
 2 2015 Nov 3754802
 3 2015 Dec 3512914
 4 2016 Jan 3526537
 5 2016 Feb 3678726
 6 2016 Mar 4627206
 7 2016 Apr 6086327
 8 2016 May 7111154
 9 2016 Jun 7552758
10 2016 Jul 9545792
# … with 73 more rows
…
3.3.1 Does the remainder component look like white noise? (30 words).

# No, clearly there is a lot of autocorrelation left in the remainder components.
# The decomposition is improvable.

4. Cross-validation (2 points)

4.1 Create a sub-time series that contains only observations prior to 2020. Call this time series sp_arrivals_2019 (0.25 points).

sp_arrivals_2019 <- sp_arrivals %>% filter(year(ym) <= 2019)

sp_arrivals_2019

# A tsibble: 51 x 2 [1M]
         ym   value
      <mth>   <dbl>
 1 2015 Oct 6432341
 2 2015 Nov 3754802
 3 2015 Dec 3512914
 4 2016 Jan 3526537
 5 2016 Feb 3678726
 6 2016 Mar 4627206
 7 2016 Apr 6086327
 8 2016 May 7111154
 9 2016 Jun 7552758
10 2016 Jul 9545792
# … with 41 more rows

4.2 Using sp_arrivals_2019, create a series of training datasets for cross-validation fulfilling the following (0.25 points).

The smallest dataset contains all the observations up to and including Oct 2017.

The datasets increase one observation at a time

init_size <- sp_arrivals_2019 %>% filter(ym <= yearmonth("2017 Oct")) %>% nrow()

sp_arrivals_2019_cv <- sp_arrivals_2019 %>% 
                  stretch_tsibble(.init = init_size, .step = 1)

sp_arrivals_2019_cv

# A tsibble: 1,026 x 3 [1M]
# Key:       .id [27]
         ym   value   .id
      <mth>   <dbl> <int>
 1 2015 Oct 6432341     1
 2 2015 Nov 3754802     1
 3 2015 Dec 3512914     1
 4 2016 Jan 3526537     1
 5 2016 Feb 3678726     1
 6 2016 Mar 4627206     1
 7 2016 Apr 6086327     1
 8 2016 May 7111154     1
 9 2016 Jun 7552758     1
10 2016 Jul 9545792     1
# … with 1,016 more rows
…
fit_cv <- sp_arrivals_2019_cv %>% model(
    mean=MEAN(value),
    naive=NAIVE(value),
    snaive=SNAIVE(value),
    drift=RW(value ~ drift()),
    dcmp=decomposition_model(
              STL(value ~ trend(window = 5) + season(window = 5)),
              RW(season_adjust ~ drift())
          )
  
)

fit_cv

# A mable: 27 x 6
# Key:     .id [27]
     .id    mean   naive   snaive         drift                      dcmp
   <int> <model> <model>  <model>       <model>                   <model>
 1     1  <MEAN> <NAIVE> <SNAIVE> <RW w/ drift> <STL decomposition model>
 2     2  <MEAN> <NAIVE> <SNAIVE> <RW w/ drift> <STL decomposition model>
 3     3  <MEAN> <NAIVE> <SNAIVE> <RW w/ drift> <STL decomposition model>
 4     4  <MEAN> <NAIVE> <SNAIVE> <RW w/ drift> <STL decomposition model>
 5     5  <MEAN> <NAIVE> <SNAIVE> <RW w/ drift> <STL decomposition model>
 6     6  <MEAN> <NAIVE> <SNAIVE> <RW w/ drift> <STL decomposition model>
 7     7  <MEAN> <NAIVE> <SNAIVE> <RW w/ drift> <STL decomposition model>
 8     8  <MEAN> <NAIVE> <SNAIVE> <RW w/ drift> <STL decomposition model>
 9     9  <MEAN> <NAIVE> <SNAIVE> <RW w/ drift> <STL decomposition model>
10    10  <MEAN> <NAIVE> <SNAIVE> <RW w/ drift> <STL decomposition model>
# … with 17 more rows
…
Warning: The future dataset is incomplete, incomplete out-of-sample data will be treated as missing. 
12 observations are missing between 2020 Jan and 2020 Dec

4.4.1 Filter the table above so that only the best 3 models for each forecast horizon are shown

summary_cv_h %>%
  group_by(h) %>% 
  mutate(row = row_number()) %>% 
  filter(row <= 3) %>% 
  select(-row)

# A tibble: 36 × 11
# Groups:   h [12]
       h .model .type       ME     RMSE    MAE    MPE  MAPE  MASE RMSSE     ACF1
   <int> <chr>  <chr>    <dbl>    <dbl>  <dbl>  <dbl> <dbl> <dbl> <dbl>    <dbl>
 1     1 snaive Test    74116.  236292. 1.95e5  1.74   3.17 0.592 0.549 -0.0167 
 2     1 dcmp   Test    22646.  273955. 2.17e5  0.389  3.23 0.659 0.637 -0.386  
 3     1 naive  Test  -114046. 1347394. 1.05e6 -4.57  17.4  3.17  3.13   0.500  
 4     2 snaive Test    65309.  233672. 1.91e5  1.54   3.03 0.580 0.543 -0.00320
 5     2 dcmp   Test    20691.  282538. 2.28e5  0.477  3.10 0.691 0.657  0.0245 
 6     2 naive  Test  -108110. 2304939. 1.99e6 -8.99  33.1  6.04  5.36   0.728  
 7     3 snaive Test    68360.  238485. 1.99e5  1.61   3.15 0.603 0.554  0.00458
 8     3 dcmp   Test     3432.  272993. 2.23e5  0.482  3.33 0.675 0.635  0.135  
 9     3 mean   Test   506787. 2335242. 2.14e6 -3.84  33.1  6.47  5.43   0.766  
10     4 snaive Test    62598.  239987. 1.99e5  1.47   3.07 0.603 0.558  0.00113
# … with 26 more rows
…
